<?xml version="1.0" encoding="iso-8859-1"?>
<!-- Generator: Adobe Illustrator 19.0.0, SVG Export Plug-In . SVG Version: 6.00 Build 0)  -->
<svg xmlns="http://www.w3.org/2000/svg" xmlns:xlink="http://www.w3.org/1999/xlink" version="1.1" id="Capa_1" x="0px" y="0px" viewBox="0 0 512 512" style="enable-background:new 0 0 512 512;" xml:space="preserve" width="512px" height="512px">
<g>
	<g>
		<path d="M256,90c-8.276,0-15,6.724-15,15s6.724,15,15,15s15-6.724,15-15S264.276,90,256,90z" fill="#18382a"/>
	</g>
</g>
<g>
	<g>
		<path d="M503.709,121.582l-241-120c-4.219-2.109-9.199-2.109-13.418,0l-241,120C3.208,124.131,0,129.316,0,135v30    c0,8.291,6.709,15,15,15c165.073,0,311.243,0,482,0c8.291,0,15-6.709,15-15v-30C512,129.316,508.792,124.131,503.709,121.582z     M256,150c-24.814,0-45-20.186-45-45c0-24.814,20.186-45,45-45c24.814,0,45,20.186,45,45C301,129.814,280.814,150,256,150z" fill="#18382a"/>
	</g>
</g>
<g>
	<g>
		<rect x="121" y="362" width="270" height="30" fill="#18382a"/>
	</g>
</g>
<g>
	<g>
		<rect x="121" y="422" width="270" height="30" fill="#18382a"/>
	</g>
</g>
<g>
	<g>
		<path d="M376,302H136c-8.276,0-15,6.724-15,15v15h270v-15C391,308.724,384.276,302,376,302z" fill="#18382a"/>
	</g>
</g>
<g>
	<g>
		<path d="M30,210v287c0,8.291,6.709,15,15,15h46c0-87.354,0-122.21,0-195c0-24.814,20.186-45,45-45h240c24.814,0,45,20.186,45,45    c0,14.767,0,25.829,0,34.338c0,16.566,0,22.8,0,23.278c0,22.436,0,64.012,0,137.384h45c8.291,0,15-6.709,15-15V210H30z" fill="#18382a"/>
	</g>
</g>
<g>
	<g>
		<rect x="121" y="482" width="270" height="30" fill="#18382a"/>
	</g>
</g>
<g>
</g>
<g>
</g>
<g>
</g>
<g>
</g>
<g>
</g>
<g>
</g>
<g>
</g>
<g>
</g>
<g>
</g>
<g>
</g>
<g>
</g>
<g>
</g>
<g>
</g>
<g>
</g>
<g>
</g>
</svg>
