<svg xmlns="http://www.w3.org/2000/svg" width="431" height="412" viewBox="0 0 431 412">
  <metadata><?xpacket begin="﻿" id="W5M0MpCehiHzreSzNTczkc9d"?>
<x:xmpmeta xmlns:x="adobe:ns:meta/" x:xmptk="Adobe XMP Core 5.6-c138 79.159824, 2016/09/14-01:09:01">
   <rdf:RDF xmlns:rdf="http://www.w3.org/1999/02/22-rdf-syntax-ns#">
      <rdf:Description rdf:about=""/>
   </rdf:RDF>
</x:xmpmeta>
                                                                                                                                                                                                                                                                                    
                           
<?xpacket end="w"?></metadata>
<defs>
    <style>
      .cls-1 {
        fill: #18382a;
        fill-rule: evenodd;
        opacity: 0.75;
      }
    </style>
  </defs>
  <path class="cls-1" d="M219.586,0h-101.9V178.805H0l1.435,8.583s2.317,2.01,7.176,8.583,5.466,4.717,11.482,8.582S35.88,220.288,35.88,220.288a9.441,9.441,0,0,0,7.176,7.152c6.133,1.362,6.066.218,10.047,5.722s4.306,8.583,4.306,8.583l4.306,7.152s-0.626,10.078,4.306,15.735,9.11,11.291,12.917,14.3a54.912,54.912,0,0,0,10.046,5.722l5.741,1.43s9.21,9.65,12.917,10.013a40.167,40.167,0,0,0,7.176,0l7.176-7.152,1.436-2.861,1.435-7.152,4.305-11.443,10.047-1.431,4.305-2.861s4.441,2.619,17.223,2.861,8.83,0.62,12.917,4.292,3.556,4.989,8.611,7.152,8.538,4.069,11.482,11.443,4.268,17.188,8.611,21.457,5.817,8.149,7.176,11.443,8.611,10.014,8.611,10.014l5.741,8.582,10.046,7.152V357.61l1.435,4.292,2.871,10.013a5.951,5.951,0,0,1,4.306,4.291c1.169,3.763,2.072,10.509,4.3,12.874s8.524,4.63,10.047,5.722a54.63,54.63,0,0,0,7.176,4.291c1.672,0.684,3.589-.873,5.74,0s2.37,3.435,7.176,5.722,9.765,0.211,15.788,1.43,5.83-.016,8.611,2.861,4.306,2.861,4.306,2.861l5.74-2.861-2.87-7.152s-4.774-6.616-5.741-8.583,0-8.582,0-8.582l-1.435-5.722-1.435-2.861v-5.722s0.363-.16,1.435-2.86a9.163,9.163,0,0,0,0-5.722,2.063,2.063,0,0,1-2.871-1.431c-0.9-2.367.034-2.282,1.436-2.861a28.955,28.955,0,0,0,4.3-2.86v-5.722l4.306-4.292-4.306-1.43-1.435-4.291,4.306-1.431h4.305l4.306-4.291s1.541-2.36,0-2.861a4.721,4.721,0,0,0-2.87,0l2.87-2.861,2.87,1.431,4.306-1.431,1.435-4.291v-4.291l2.871,1.43,4.305-2.861h4.306L334.4,314.7l-4.306-4.291v-4.291l2.87,2.86h4.306l5.741-1.43s-0.874,1.562,1.435,1.43,7.176,0,7.176,0l4.306,1.431-1.436-4.291,4.306-1.431s11.512-2.276,15.787-8.583,4.647-9.135,5.741-8.582,3.456-.93,4.306-2.861,1.435-7.152,1.435-7.152-2.614-2.587-1.435-4.292,0.958-2.112,2.87-2.86,1.374-3.592,2.871-2.861,2.808-.363,2.87,1.43-2.075,6.043,1.435,5.722a22.993,22.993,0,0,0,7.176-1.431c3.149-1.045,6.217-2.511,8.611-2.86s6.492-1.022,7.176-1.431,3.492-.462,2.871-1.43-0.583-6.172,2.87-10.013,1.435-10.014,1.435-10.014-1.139-9.616,2.871-15.734,4.236-20.136,1.435-22.887-5.741-14.305-5.741-14.305l-4.305-8.583-4.306-4.291,1.435-48.635-2.87-12.874-2.871-1.43a32.721,32.721,0,0,0-4.305,0,32.926,32.926,0,0,1-4.306,0l-2.87-2.861-2.871-1.431-11.481-5.721-5.741-2.861H367.412l-7.176-1.431-2.87,1.431-7.176,1.43a15.307,15.307,0,0,0-2.871,1.431c-1.114.781-2.441,4.012-5.74,4.291s-7.882.277-8.612-1.431-2.748-4.22-4.305-4.291-4.306,1.431-4.306,1.431l-5.741-4.292H314.31v5.722l-5.741-4.291-1.435,1.43-2.871,1.431-2.87-2.861-5.741-2.861-4.306,2.861-4.305,1.43-1.435-4.291L278.43,97.27l-4.306-1.43s-2.845,3.917-5.741,2.861-3.08-3.286-5.741-2.861a37.386,37.386,0,0,1-7.176,0s-4.159-2.864-5.74-2.861-4.306,0-4.306,0-1.133-6.418-4.306-7.152-0.362,1.976-4.305,1.431S226.121,85.84,225.327,84.4s-7.176-5.722-7.176-5.722Z"/>
</svg>
